<svg id="filter" viewBox="0 0 27 27" fill="none" xmlns="http://www.w3.org/2000/svg">
  <path d="M11.9375 4.125C11.9375 5.85089 10.5384 7.25 8.8125 7.25C7.08661 7.25 5.6875 5.85089 5.6875 4.125M11.9375 4.125C11.9375 2.39911 10.5384 1 8.8125 1C7.08661 1 5.6875 2.39911 5.6875 4.125M11.9375 4.125L26 4.125M5.6875 4.125L1 4.125M11.9375 22.875C11.9375 24.6009 10.5384 26 8.8125 26C7.08661 26 5.6875 24.6009 5.6875 22.875M11.9375 22.875C11.9375 21.1491 10.5384 19.75 8.8125 19.75C7.08661 19.75 5.6875 21.1491 5.6875 22.875M11.9375 22.875L26 22.875M5.6875 22.875L1 22.875M21.3125 13.5C21.3125 15.2259 19.9134 16.625 18.1875 16.625C16.4616 16.625 15.0625 15.2259 15.0625 13.5M21.3125 13.5C21.3125 11.7741 19.9134 10.375 18.1875 10.375C16.4616 10.375 15.0625 11.7741 15.0625 13.5M21.3125 13.5L26 13.5M15.0625 13.5H1" stroke-linecap="round" stroke-linejoin="round"/>
</svg>
