<svg id="menu" viewBox="0 0 37 20" fill="none" xmlns="http://www.w3.org/2000/svg">
  <path d="M1 1H36" stroke-linecap="round"/>
  <path d="M1 9.5H36" stroke-linecap="round"/>
  <path d="M1 18.5H36" stroke-linecap="round"/>
</svg>
